/* XPM */
static char * title_5_active_xpm[] = {
"2 26 3 1",
" 	c None",
".	c #ae3f3e",
"+	c #222222",
"..",
"++",
"++",
"++",
"++",
"++",
"++",
"++",
"++",
"++",
"++",
"++",
"++",
"++",
"++",
"++",
"++",
"++",
"++",
"++",
"++",
"++",
"++",
"++",
"++",
"++"};
